[gd_scene load_steps=2 format=3 uid="uid://cuv821kqvnloo"]

[ext_resource type="Script" path="res://Constructions/Wall.gd" id="1_fs17c"]

[node name="Door" type="Node"]
script = ExtResource("1_fs17c")
tileMapIndex = 2
tileMapPos = Vector2i(1, 1)
placingMode = 1
