[gd_scene load_steps=2 format=3 uid="uid://bdsjqyi1ntng6"]

[ext_resource type="Script" path="res://Item/Plants/Plant.gd" id="1_t3x2x"]

[node name="Pine Tree" type="Node"]
script = ExtResource("1_t3x2x")
harvestGrowthInterval = 10
growthTileMapPos = [Vector2i(0, 6), Vector2i(1, 6), Vector2i(2, 6), Vector2i(3, 6)]
growthIntervals = [10, 20, 30]
hasFruitTileMapPos = Vector2i(-1, -1)
deadTileMapPos = Vector2i(5, 6)
tileMapIndex = 1
