[gd_scene load_steps=2 format=3 uid="uid://buxe1k8yeaaok"]

[ext_resource type="Script" path="res://Item/Food/Food.gd" id="2_fwoua"]

[node name="Simple Meal" type="Node"]
script = ExtResource("2_fwoua")
foodQuality = 1
tileMapIndex = 1
tileMapPos = Vector2i(2, 0)
